<?xml version="1.0" encoding="utf-8"?>
<!-- Generator: Adobe Illustrator 16.0.0, SVG Export Plug-In . SVG Version: 6.00 Build 0)  -->
<!DOCTYPE svg PUBLIC "-//W3C//DTD SVG 1.1//EN" "http://www.w3.org/Graphics/SVG/1.1/DTD/svg11.dtd">
<svg version="1.1" id="Layer_1" xmlns="http://www.w3.org/2000/svg" xmlns:xlink="http://www.w3.org/1999/xlink" x="0px" y="0px"
	 width="135px" height="135px" viewBox="0 0 135 135" enable-background="new 0 0 135 135" xml:space="preserve">
<g>
	<g>
		
			<rect x="32.2" y="28.7" transform="matrix(0.7071 0.7071 -0.7071 0.7071 65.0624 -28.9691)" fill="#688A8C" width="70.6" height="70.6"/>
		<polyline fill="#364948" points="67.5,14.1 117.4,64.1 67.5,114 		"/>
		
			<rect x="32.2" y="28.7" transform="matrix(0.7071 0.7071 -0.7071 0.7071 65.0624 -28.9691)" fill="none" stroke="#33363A" stroke-width="3" stroke-linecap="round" stroke-linejoin="round" stroke-miterlimit="10" width="70.6" height="70.6"/>
	</g>
	<g>
		<g>
			<circle fill-rule="evenodd" clip-rule="evenodd" fill="#FFDCCC" cx="67.5" cy="63.3" r="25.9"/>
			<g>
				<path fill-rule="evenodd" clip-rule="evenodd" fill="#F4C2AE" d="M95.5,65.3c0,15.4-12.5,28-28,28c-15.4,0-28-12.5-28-28
					s12.5-3.6,28-3.6C82.9,61.7,95.5,49.9,95.5,65.3z"/>
				<g>
					<g>
						<g>
							<path fill="#F4C2AE" d="M99.6,74.6L99.6,74.6c2.3,0,4.1-1.9,4.1-4.1v-6c0-2.3-1.9-4.1-4.1-4.1l0,0c-2.3,0-4.1,1.9-4.1,4.1"/>
						</g>
						<g>
							<path fill="#F4C2AE" d="M99.6,74.6L99.6,74.6c-2.3,0-4.1-1.9-4.1-4.1v-6c0-2.3,1.9-4.1,4.1-4.1l0,0c2.3,0,4.1,1.9,4.1,4.1"/>
						</g>
						<g>
							<path fill="#F4C2AE" d="M35.4,74.6L35.4,74.6c-2.3,0-4.1-1.9-4.1-4.1v-6c0-2.3,1.9-4.1,4.1-4.1l0,0c2.3,0,4.1,1.9,4.1,4.1"/>
						</g>
						<g>
							<path fill="#F4C2AE" d="M35.4,74.6L35.4,74.6c2.3,0,4.1-1.9,4.1-4.1v-6c0-2.3-1.9-4.1-4.1-4.1l0,0c-2.3,0-4.1,1.9-4.1,4.1"/>
						</g>
					</g>
					<g>
						
							<path fill-rule="evenodd" clip-rule="evenodd" fill="none" stroke="#33363A" stroke-width="3" stroke-linecap="round" stroke-linejoin="round" stroke-miterlimit="10" d="
							M56.6,79.7c6-6,15.8-6,21.8,0"/>
						<g>
							
								<circle fill-rule="evenodd" clip-rule="evenodd" fill="none" stroke="#33363A" stroke-width="3" stroke-linecap="round" stroke-linejoin="round" stroke-miterlimit="10" cx="67.5" cy="65.3" r="28"/>
							<g>
								
									<path fill-rule="evenodd" clip-rule="evenodd" fill="none" stroke="#33363A" stroke-width="3" stroke-linecap="round" stroke-linejoin="round" stroke-miterlimit="10" d="
									M85.6,64.1c0,2.1-1.7,3.7-3.7,3.7s-3.7-1.7-3.7-3.7"/>
								
									<path fill-rule="evenodd" clip-rule="evenodd" fill="none" stroke="#33363A" stroke-width="3" stroke-linecap="round" stroke-linejoin="round" stroke-miterlimit="10" d="
									M56.9,64.1c0,2.1-1.7,3.7-3.7,3.7c-2.1,0-3.7-1.7-3.7-3.7"/>
							</g>
							
								<path fill="none" stroke="#33363A" stroke-width="3" stroke-linecap="round" stroke-linejoin="round" stroke-miterlimit="10" d="
								M64.6,37.6c6.3-0.8,12.1,3.7,12.9,10c0.6,5.1-2.9,9.7-8,10.3c-4.1,0.5-7.8-2.4-8.3-6.4c-0.4-3.2,1.9-6.2,5.1-6.6
								c2.6-0.3,5,1.5,5.3,4.1"/>
						</g>
					</g>
					<g>
						<g>
							
								<path fill="none" stroke="#33363A" stroke-width="3" stroke-linecap="round" stroke-linejoin="round" stroke-miterlimit="10" d="
								M99.6,74.6L99.6,74.6c2.3,0,4.1-1.9,4.1-4.1v-6c0-2.3-1.9-4.1-4.1-4.1l0,0c-2.3,0-4.1,1.9-4.1,4.1"/>
						</g>
						<g>
							
								<path fill="none" stroke="#33363A" stroke-width="3" stroke-linecap="round" stroke-linejoin="round" stroke-miterlimit="10" d="
								M35.4,74.6L35.4,74.6c-2.3,0-4.1-1.9-4.1-4.1v-6c0-2.3,1.9-4.1,4.1-4.1l0,0c2.3,0,4.1,1.9,4.1,4.1"/>
						</g>
					</g>
				</g>
			</g>
		</g>
		<g>
			<g>
				<g>
					<polygon fill="#F2BFA5" points="96.7,60.7 104.7,69.9 105.1,71.3 105.1,90.6 100.9,86.3 100.2,80.1 96,78.3 96,93.6 
						107.8,110.6 119.1,107.7 119.1,74 112.7,65.3 101.5,56.3 96.7,56.3 					"/>
					<polygon fill="#FFDCCC" points="96,93.6 107.7,110.5 113.9,107.7 113.9,74 107.5,65.3 96.7,56.6 96.7,60.7 104.7,69.9 
						105.1,71.3 105.1,90.6 100.9,86.3 100.2,80.1 100,80 96.3,78.8 96,86.5 					"/>
					
						<polygon fill="none" stroke="#33363A" stroke-width="3" stroke-linecap="round" stroke-linejoin="round" stroke-miterlimit="10" points="
						96.7,60.7 104.7,69.9 105.1,71.3 105.1,90.6 100.9,86.3 100.2,80.1 96,78.3 96,93.6 107.8,110.6 119.1,107.7 119.1,74 
						112.7,65.3 101.5,56.3 96.7,56.3 					"/>
				</g>
				<path fill="#2EBAEC" d="M114,120.9l-6.6-6.6c-1.5-1.5-2.2-3.3-1.4-4.1l13-13c0.7-0.7,2.5-0.1,4.1,1.4l6.6,6.6"/>
				<path fill="#2A8FEA" d="M124.6,110.3l-6.6-6.6c-1.5-1.5-3.3-2.2-4.1-1.4l-8,8c-0.7,0.7-0.1,2.5,1.4,4.1l6.6,6.6"/>
				
					<path fill="none" stroke="#33363A" stroke-width="3" stroke-linecap="round" stroke-linejoin="round" stroke-miterlimit="10" d="
					M114,120.9l-6.6-6.6c-1.5-1.5-2.2-3.3-1.4-4.1l13-13c0.7-0.7,2.5-0.1,4.1,1.4l6.6,6.6"/>
			</g>
			<g>
				<g>
					<polygon fill="#F2BFA5" points="38.2,60.7 30.3,69.9 29.9,71.3 29.9,90.6 34.1,86.3 34.8,80.1 39,78.3 39,93.6 27.2,110.6 
						15.9,107.7 15.9,74 22.3,65.3 33.5,56.3 38.2,56.3 					"/>
					<polygon fill="#FFDCCC" points="39,93.6 27.3,110.5 21.1,107.7 21.1,74 27.5,65.3 38.2,56.6 38.2,60.7 30.3,69.9 29.9,71.3 
						29.9,90.6 34.1,86.3 34.8,80.1 35,80 38.7,78.8 39,86.5 					"/>
					
						<polygon fill="none" stroke="#33363A" stroke-width="3" stroke-linecap="round" stroke-linejoin="round" stroke-miterlimit="10" points="
						38.2,60.7 30.3,69.9 29.9,71.3 29.9,90.6 34.1,86.3 34.8,80.1 39,78.3 39,93.6 27.2,110.6 15.9,107.7 15.9,74 22.3,65.3 
						33.5,56.3 38.2,56.3 					"/>
				</g>
				<path fill="#FF8ABF" d="M21,120.9l6.6-6.6c1.5-1.5,2.2-3.3,1.4-4.1l-13-13c-0.7-0.7-2.5-0.1-4.1,1.4l-6.6,6.6"/>
				<path fill="#EA2475" d="M10.4,110.3l6.6-6.6c1.5-1.5,3.3-2.2,4.1-1.4l8,8c0.7,0.7,0.1,2.5-1.4,4.1l-6.6,6.6"/>
				
					<path fill="none" stroke="#33363A" stroke-width="3" stroke-linecap="round" stroke-linejoin="round" stroke-miterlimit="10" d="
					M21,120.9l6.6-6.6c1.5-1.5,2.2-3.3,1.4-4.1l-13-13c-0.7-0.7-2.5-0.1-4.1,1.4l-6.6,6.6"/>
			</g>
		</g>
	</g>
</g>
</svg>
