<?xml version="1.0" encoding="utf-8"?>
<!-- Generator: Adobe Illustrator 16.0.0, SVG Export Plug-In . SVG Version: 6.00 Build 0)  -->
<!DOCTYPE svg PUBLIC "-//W3C//DTD SVG 1.1//EN" "http://www.w3.org/Graphics/SVG/1.1/DTD/svg11.dtd">
<svg version="1.1" id="Layer_1" xmlns="http://www.w3.org/2000/svg" xmlns:xlink="http://www.w3.org/1999/xlink" x="0px" y="0px"
	 width="130px" height="130px" viewBox="0 0 130 130" enable-background="new 0 0 130 130" xml:space="preserve">
<g>
	<g>
		<g>
			<g>
				<g>
					<rect x="22.6" y="34.8" fill="#29A9FF" width="74.1" height="74.1"/>
					<polyline fill="#008CFF" points="96.8,34.8 96.8,109 22.6,109 					"/>
					<rect x="31.1" y="43.3" fill="#2E7EFF" width="57.3" height="57.3"/>
					<polyline fill="#0E54E0" points="88.3,43.3 88.3,100.5 31.1,100.5 					"/>
					
						<rect x="31.1" y="43.3" fill="none" stroke="#33363A" stroke-width="3" stroke-linecap="round" stroke-linejoin="round" stroke-miterlimit="10" width="57.3" height="57.3"/>
					
						<rect x="22.6" y="34.8" fill="none" stroke="#33363A" stroke-width="3" stroke-linecap="round" stroke-linejoin="round" stroke-miterlimit="10" width="74.1" height="74.1"/>
					
						<line fill="none" stroke="#33363A" stroke-width="3" stroke-linecap="round" stroke-linejoin="round" stroke-miterlimit="10" x1="53" y1="57.3" x2="53" y2="44.4"/>
					
						<line fill="none" stroke="#33363A" stroke-width="3" stroke-linecap="round" stroke-linejoin="round" stroke-miterlimit="10" x1="53" y1="80.4" x2="53" y2="67.4"/>
					
						<line fill="none" stroke="#33363A" stroke-width="3" stroke-linecap="round" stroke-linejoin="round" stroke-miterlimit="10" x1="53" y1="80.4" x2="31.1" y2="80.4"/>
					
						<line fill="none" stroke="#33363A" stroke-width="3" stroke-linecap="round" stroke-linejoin="round" stroke-miterlimit="10" x1="49.5" y1="58.6" x2="56.5" y2="58.6"/>
					
						<line fill="none" stroke="#33363A" stroke-width="3" stroke-linecap="round" stroke-linejoin="round" stroke-miterlimit="10" x1="49.5" y1="67.1" x2="56.5" y2="67.1"/>
					
						<path fill="none" stroke="#33363A" stroke-width="3" stroke-linecap="round" stroke-linejoin="round" stroke-miterlimit="10" d="
						M88.3,57.8c-8.1,0-14.6-6.5-14.6-14.6"/>
				</g>
				
					<line fill="none" stroke="#33363A" stroke-width="3" stroke-linecap="round" stroke-linejoin="round" stroke-miterlimit="10" x1="73.8" y1="105.9" x2="73.8" y2="112.1"/>
				
					<line fill="none" stroke="#33363A" stroke-width="3" stroke-linecap="round" stroke-linejoin="round" stroke-miterlimit="10" x1="88.3" y1="105.9" x2="88.3" y2="112.1"/>
				
					<polyline fill="none" stroke="#33363A" stroke-width="3" stroke-linecap="round" stroke-linejoin="round" stroke-miterlimit="10" stroke-dasharray="5" points="
					53,100.3 53,88.7 31.1,88.7 				"/>
			</g>
		</g>
		<g>
			<g>
				
					<polyline fill="none" stroke="#33363A" stroke-width="3" stroke-linecap="round" stroke-linejoin="round" stroke-miterlimit="10" points="
					15.3,34.6 11,30.3 6.7,34.6 				"/>
				
					<polyline fill="none" stroke="#33363A" stroke-width="3" stroke-linecap="round" stroke-linejoin="round" stroke-miterlimit="10" points="
					6.7,109.2 11,113.5 15.3,109.2 				"/>
				
					<line fill="none" stroke="#33363A" stroke-width="3" stroke-linecap="round" stroke-linejoin="round" stroke-miterlimit="10" x1="11" y1="30.9" x2="11" y2="111.4"/>
			</g>
		</g>
		<g>
			<g>
				
					<polyline fill="none" stroke="#33363A" stroke-width="3" stroke-linecap="round" stroke-linejoin="round" stroke-miterlimit="10" points="
					22.4,116.3 18.1,120.6 22.4,124.9 				"/>
				
					<polyline fill="none" stroke="#33363A" stroke-width="3" stroke-linecap="round" stroke-linejoin="round" stroke-miterlimit="10" points="
					97,124.9 101.3,120.6 97,116.3 				"/>
				
					<line fill="none" stroke="#33363A" stroke-width="3" stroke-linecap="round" stroke-linejoin="round" stroke-miterlimit="10" x1="18.8" y1="120.6" x2="99.2" y2="120.6"/>
			</g>
		</g>
	</g>
	<g>
		<path fill="#FF6155" d="M123.3,97.7c0,3.6-2.9,6.5-6.5,6.5h-3.6c-3.6,0-6.5-2.9-6.5-6.5V9c0-3.6,2.9-6.5,6.5-6.5h3.6
			c3.6,0,6.5,2.9,6.5,6.5V97.7z"/>
		<path fill="#FF1A1A" d="M113.2,2.5h3.6c3.6,0,6.5,2.9,6.5,6.5v88.7c0,3.6-2.9,6.5-6.5,6.5h-3.6"/>
		<path fill="none" stroke="#33363A" stroke-width="3" stroke-linecap="round" stroke-linejoin="round" stroke-miterlimit="10" d="
			M123.3,97.7c0,3.6-2.9,6.5-6.5,6.5h-3.6c-3.6,0-6.5-2.9-6.5-6.5V9c0-3.6,2.9-6.5,6.5-6.5h3.6c3.6,0,6.5,2.9,6.5,6.5V97.7z"/>
		<g>
			<polygon fill="#F9D5AA" points="107.3,100.2 115,127.5 122.7,100.2 			"/>
			<polygon fill="#F7B257" points="113.2,100.2 115,127.5 122.7,100.2 			"/>
			
				<polygon fill="none" stroke="#33363A" stroke-width="3" stroke-linecap="round" stroke-linejoin="round" stroke-miterlimit="10" points="
				107.3,100.2 115,127.5 122.7,100.2 			"/>
		</g>
		<g>
			<polygon fill="#33363A" points="110.6,112 115,127.5 119.3,112 			"/>
			
				<polygon fill="none" stroke="#33363A" stroke-width="3" stroke-linecap="round" stroke-linejoin="round" stroke-miterlimit="10" points="
				110.6,112 115,127.5 119.3,112 			"/>
		</g>
		<g>
			<g>
				
					<line fill="none" stroke="#33363A" stroke-width="3" stroke-linecap="round" stroke-linejoin="round" stroke-miterlimit="10" x1="112.3" y1="10" x2="112.3" y2="58.9"/>
				
					<line fill="none" stroke="#33363A" stroke-width="3" stroke-linecap="round" stroke-linejoin="round" stroke-miterlimit="10" x1="112.3" y1="66.7" x2="112.3" y2="73.4"/>
				
					<line fill="none" stroke="#33363A" stroke-width="3" stroke-linecap="round" stroke-linejoin="round" stroke-miterlimit="10" x1="112.3" y1="80.9" x2="112.3" y2="81.9"/>
				
					<line fill="none" stroke="#33363A" stroke-width="3" stroke-linecap="round" stroke-linejoin="round" stroke-miterlimit="10" x1="112.3" y1="90.5" x2="112.3" y2="91.5"/>
			</g>
			<g>
				
					<line fill="none" stroke="#33363A" stroke-width="3" stroke-linecap="round" stroke-linejoin="round" stroke-miterlimit="10" x1="117.7" y1="10" x2="117.7" y2="58.9"/>
				
					<line fill="none" stroke="#33363A" stroke-width="3" stroke-linecap="round" stroke-linejoin="round" stroke-miterlimit="10" x1="117.7" y1="66.7" x2="117.7" y2="73.4"/>
				
					<line fill="none" stroke="#33363A" stroke-width="3" stroke-linecap="round" stroke-linejoin="round" stroke-miterlimit="10" x1="117.7" y1="80.9" x2="117.7" y2="81.9"/>
				
					<line fill="none" stroke="#33363A" stroke-width="3" stroke-linecap="round" stroke-linejoin="round" stroke-miterlimit="10" x1="117.7" y1="90.5" x2="117.7" y2="91.5"/>
			</g>
		</g>
	</g>
</g>
</svg>
