<?xml version="1.0" encoding="utf-8"?>
<!-- Generator: Adobe Illustrator 16.0.0, SVG Export Plug-In . SVG Version: 6.00 Build 0)  -->
<!DOCTYPE svg PUBLIC "-//W3C//DTD SVG 1.1//EN" "http://www.w3.org/Graphics/SVG/1.1/DTD/svg11.dtd">
<svg version="1.1" id="Layer_1" xmlns="http://www.w3.org/2000/svg" xmlns:xlink="http://www.w3.org/1999/xlink" x="0px" y="0px"
	 width="135px" height="135px" viewBox="0 0 135 135" enable-background="new 0 0 135 135" xml:space="preserve">
<g>
	<g>
		<g>
			
				<line fill="none" stroke="#33363A" stroke-width="3" stroke-linecap="round" stroke-linejoin="round" stroke-miterlimit="10" x1="93.593" y1="69.723" x2="67.5" y2="69.723"/>
			
				<line fill="none" stroke="#33363A" stroke-width="3" stroke-linecap="round" stroke-linejoin="round" stroke-miterlimit="10" x1="77.956" y1="17.156" x2="93.593" y2="17.156"/>
			<g>
				<g>
					<path fill="none" stroke="#33363A" stroke-width="3" stroke-linecap="round" stroke-linejoin="round" d="M93.593,17.156
						c1.184,0,2.35,0.079,3.492,0.231"/>
					
						<path fill="none" stroke="#33363A" stroke-width="3" stroke-linecap="round" stroke-linejoin="round" stroke-dasharray="6.8479,6.8479" d="
						M103.677,19.178c9.401,3.944,16.006,13.237,16.006,24.07v0.383c0,12.04-8.154,22.174-19.238,25.183"/>
					<path fill="none" stroke="#33363A" stroke-width="3" stroke-linecap="round" stroke-linejoin="round" d="M97.085,69.491
						c-1.143,0.152-2.308,0.231-3.492,0.231"/>
				</g>
			</g>
		</g>
		<g>
			
				<line fill="none" stroke="#33363A" stroke-width="3" stroke-linecap="round" stroke-linejoin="round" stroke-miterlimit="10" x1="41.407" y1="69.723" x2="67.5" y2="69.723"/>
			
				<line fill="none" stroke="#33363A" stroke-width="3" stroke-linecap="round" stroke-linejoin="round" stroke-miterlimit="10" x1="67.5" y1="122.287" x2="41.407" y2="122.287"/>
			<g>
				<g>
					<path fill="none" stroke="#33363A" stroke-width="3" stroke-linecap="round" stroke-linejoin="round" d="M41.407,122.287
						c-1.184,0-2.35-0.079-3.492-0.231"/>
					
						<path fill="none" stroke="#33363A" stroke-width="3" stroke-linecap="round" stroke-linejoin="round" stroke-dasharray="6.8478,6.8478" d="
						M31.323,120.267c-9.401-3.944-16.006-13.236-16.006-24.071v-0.383c0-12.039,8.154-22.172,19.238-25.181"/>
					<path fill="none" stroke="#33363A" stroke-width="3" stroke-linecap="round" stroke-linejoin="round" d="M37.915,69.954
						c1.143-0.152,2.308-0.231,3.492-0.231"/>
				</g>
			</g>
		</g>
	</g>
	<g>
		<g>
			<path fill="#5794C1" d="M67.5,29.072c-6.57,0-11.916-5.346-11.916-11.916S60.93,5.24,67.5,5.24s11.916,5.346,11.916,11.916
				S74.07,29.072,67.5,29.072z M67.5,13.816c-1.842,0-3.34,1.498-3.34,3.34s1.498,3.34,3.34,3.34s3.34-1.498,3.34-3.34
				S69.342,13.816,67.5,13.816z"/>
		</g>
		<path fill="#77BDE8" d="M67.5,5.24c-6.57,0-11.916,5.346-11.916,11.916h8.576c0-1.842,1.498-3.34,3.34-3.34s3.34,1.498,3.34,3.34
			h8.576C79.416,10.586,74.07,5.24,67.5,5.24z"/>
		<g>
			<g>
				<path fill="#F2303F" d="M62.105,79.428c-1.097,0-2.194-0.418-3.031-1.256c-1.675-1.674-1.675-4.389,0-6.062l10.788-10.787
					c1.673-1.678,4.391-1.678,6.063,0c1.674,1.672,1.674,4.389,0,6.062L65.138,78.172C64.301,79.01,63.202,79.428,62.105,79.428z"/>
			</g>
			<g>
				<path fill="#FF5F72" d="M72.894,79.428c-1.096,0-2.194-0.418-3.031-1.256L59.074,67.385c-1.675-1.674-1.675-4.391,0-6.062
					c1.673-1.678,4.391-1.678,6.063,0l10.788,10.787c1.674,1.674,1.674,4.389,0,6.062C75.089,79.01,73.991,79.428,72.894,79.428z"/>
			</g>
		</g>
		<g>
			<path fill="#20D397" d="M64.361,129.76c-1.097,0-2.193-0.418-3.031-1.256l-4.489-4.488c-1.675-1.674-1.675-4.391,0-6.062
				c1.673-1.676,4.391-1.676,6.063,0l1.457,1.457l7.734-7.734c1.675-1.674,4.391-1.674,6.063,0c1.675,1.674,1.675,4.391,0,6.064
				l-10.767,10.764C66.556,129.342,65.458,129.76,64.361,129.76z"/>
		</g>
		<path fill="#3CF7B3" d="M72.096,111.676l-7.734,7.734l-1.457-1.457c-1.61-1.611-4.179-1.658-5.86-0.168l4.286,4.287
			c0.838,0.838,1.935,1.258,3.031,1.258s2.194-0.42,3.031-1.258l10.563-10.561C76.274,110.02,73.708,110.064,72.096,111.676z"/>
		<g>
			<path fill="none" stroke="#33363A" stroke-width="3" stroke-linecap="round" stroke-linejoin="round" stroke-miterlimit="10" d="
				M67.5,29.072c-6.57,0-11.916-5.346-11.916-11.916S60.93,5.24,67.5,5.24s11.916,5.346,11.916,11.916S74.07,29.072,67.5,29.072z
				 M67.5,13.816c-1.842,0-3.34,1.498-3.34,3.34s1.498,3.34,3.34,3.34s3.34-1.498,3.34-3.34S69.342,13.816,67.5,13.816z"/>
		</g>
		<g>
			<g>
				
					<path fill="none" stroke="#33363A" stroke-width="3" stroke-linecap="round" stroke-linejoin="round" stroke-miterlimit="10" d="
					M62.105,79.428c-1.097,0-2.194-0.418-3.031-1.256c-1.675-1.674-1.675-4.389,0-6.062l10.788-10.787
					c1.673-1.678,4.391-1.678,6.063,0c1.674,1.672,1.674,4.389,0,6.062L65.138,78.172C64.301,79.01,63.202,79.428,62.105,79.428z"/>
			</g>
			<g>
				
					<path fill="none" stroke="#33363A" stroke-width="3" stroke-linecap="round" stroke-linejoin="round" stroke-miterlimit="10" d="
					M72.894,79.428c-1.096,0-2.194-0.418-3.031-1.256L59.074,67.385c-1.675-1.674-1.675-4.391,0-6.062
					c1.673-1.678,4.391-1.678,6.063,0l10.788,10.787c1.674,1.674,1.674,4.389,0,6.062C75.089,79.01,73.991,79.428,72.894,79.428z"/>
			</g>
		</g>
		<g>
			<path fill="none" stroke="#33363A" stroke-width="3" stroke-linecap="round" stroke-linejoin="round" stroke-miterlimit="10" d="
				M64.361,129.76c-1.097,0-2.193-0.418-3.031-1.256l-4.489-4.488c-1.675-1.674-1.675-4.391,0-6.062
				c1.673-1.676,4.391-1.676,6.063,0l1.457,1.457l7.734-7.734c1.675-1.674,4.391-1.674,6.063,0c1.675,1.674,1.675,4.391,0,6.064
				l-10.767,10.764C66.556,129.342,65.458,129.76,64.361,129.76z"/>
		</g>
	</g>
</g>
</svg>
